<svg width="375" height="192" viewBox="0 0 375 192" fill="none" xmlns="http://www.w3.org/2000/svg">
<g clip-path="url(#clip0)">
<path d="M-242.024 152.976C-226.014 103.004 -172.047 111.246 -149.012 134.281C-125.977 157.316 -99.1459 161.417 -99.1459 161.417C-6.88556 161.417 36.1717 184.341 56.2998 179.868C76.4279 175.394 40.0831 151.908 20.5124 161.417C0.941771 170.925 -63.916 188.252 -66.6802 168.723C-68.8132 138.437 5.91276 59.9284 5.77455 75.5185C5.63633 91.1087 13.5558 128.702 19.7845 125.164C26.0132 121.626 29.9937 111.919 29.9983 111.909C40.5944 96.8352 13.3715 73.0906 13.2425 69.8795C31.7674 50.0693 -3.13543 27.7068 21.6227 12.9229C16.0943 14.1299 17.2276 40.2149 23.1384 40.7954C24.0598 33.1155 48.2237 50.1937 44.3307 47.646C49.4583 50.9815 50.9326 37.5474 46.7402 34.1014C52.0014 32.9819 52.241 28.6006 49.8131 24.0396L67.481 25.2605C64.6477 21.0635 27.5842 8.59687 23.9262 10.9418C23.9262 10.9418 28.1739 4.53808 28.1785 4.54269C26.6075 -4.2982 92.9902 13.296 74.0277 14.8993L80.9842 20.46C72.6317 22.1231 81.8135 39.9799 76.0225 49.9726C76.216 55.114 90.5945 69.3221 75.3453 67.553C65.6705 108.035 40.682 64.0332 41.4099 107.8C55.7516 65.0375 68.4762 184.189 77.9897 160.228C77.9897 160.228 91.5205 133.175 91.5251 133.18C87.0655 125.196 83.7945 129.771 95.2107 107.266C116.679 64.9592 149.389 114.715 111.377 132.061C86.7706 138.51 115.569 116.397 115.569 116.397C128.989 106.883 132.343 87.8101 137.807 108.238C141.622 122.833 169.494 127.048 169.494 127.048C209.576 130.941 133.431 91.2561 140.318 86.3957C147.206 81.5353 138.015 70.7549 140.226 62.7386C147.031 46.8813 146.814 70.6812 151.048 46.7845C152.55 38.326 182.256 41.8596 182.099 25.9377C182.044 19.299 161.165 16.5348 142.746 21.2201C120.844 26.7946 132.283 57.5051 136.195 55.8281C140.106 54.1511 138.227 36.4463 169.766 33.6315C201.306 30.8166 206.162 39.897 203.37 41.0027C200.578 42.1084 180.952 38.4642 180.952 38.4642C171.328 41.6891 191.318 55.8511 180.455 61.9048C184.066 67.6221 190.995 75.4771 183.14 76.5689C186.365 107.653 151.052 76.0345 173.005 119.534C161.598 79.1949 212.685 122.8 193.092 143.615C193.092 143.615 187.204 149.922 204.042 152.437C271.457 162.513 238.416 189.349 238.416 189.349C234.182 180.384 225.792 180.218 225.594 177.394C245.271 175.417 226.055 170.746 221.835 167.659C232.5 157.92 229.174 149.471 220.66 137.124C223.263 122.45 243.234 99.1341 220.978 110.5C204.641 118.838 220.817 144.251 229.893 115.25C246.676 103.829 252.707 106.727 247.726 120.847C251.771 110.771 266.044 111.896 269.467 120.068C279.916 143.919 249.703 127.44 258.719 130.909C245.579 125.878 251.398 138.768 242.557 135.663C224.037 129.711 241.442 159.984 256.669 158.215C273.185 156.298 272.332 131.692 271.674 127.481C290.102 125.767 288.72 108.242 288.72 108.242C288.72 108.242 281.242 102.87 283.652 95.7664C289.378 87.8331 296.823 105.847 298.081 97.4111C299.242 89.6713 300.357 83.4703 305.789 83.4703C318.44 83.4703 326.903 80.2453 326.903 80.2453C331.353 78.9185 326.732 85.161 326.732 85.161C324.364 87.9575 321.752 82.2448 321.752 82.2448C306.494 60.5365 252.135 69.3451 283.237 113.112C293.695 125.408 301.753 145.633 314.952 129.425C330.736 110.039 346.049 147.628 349.099 153.133C349.099 153.133 357.111 170.138 339.217 170.138C328.036 170.138 331.818 152.631 331.943 147.794C330.796 103.667 401.509 97.1577 375.06 87.0407C365.551 83.4058 382.606 52.6493 386.748 57.4037C403.117 76.205 410.575 67.7695 408.019 62.1397C391.277 25.2513 342.378 64.9039 358.129 90.3992C361.907 101.341 337.301 110.785 369.145 109.288C378.695 108.827 379.796 136.469 399.049 117.231C407.438 108.841 381.081 109.007 380.685 100.714C398.256 116.719 420.071 68.5803 407.807 71.5657C410.313 70.9576 394.575 74.7353 413.335 84.5898C406.121 96.9366 407.668 90.1182 417.362 101.488C409.507 114.388 399.03 109.09 422.333 121.63C434.73 131.093 460.999 173.911 430.395 169.861C384.693 163.812 437.305 109.048 450.095 114.079C425.857 114.881 467.707 20.741 474.862 50.7051C477.083 59.9975 455.254 57.7999 467.03 76.4261C473.941 87.3908 464.726 94.7344 468.873 105.321C475.359 117.157 456.471 114.402 456.471 114.402C470.9 157.768 535.126 102.944 507.001 74.9657C495.686 63.7061 493.267 39.4916 478.718 44.7758C490.01 48.4016 464.118 70.4508 479.98 64.6183C490.715 60.6701 497.662 75.9193 498.408 83.5624C499.611 95.9 492.986 100.175 489.655 102.41C486.324 104.644 484.32 113.333 487.227 114.535C547.575 139.593 510.659 154.948 575.811 160.937" stroke="white" stroke-width="4.14632" stroke-linejoin="round"/>
</g>
<defs>
<clipPath id="clip0">
<rect width="820" height="191.454" fill="white" transform="matrix(-1 0 0 1 576 0)"/>
</clipPath>
</defs>
</svg>
